{
  "profiles": {
    "BuilderGenerator": {
      "commandName": "Project",
      "commandLineArgs": " -f BuilderGenerator.dll -t BuilderGenApplication -o BuilderGeneratorBuilder.cs"
    }
  }
}